<?xml version="1.0" encoding="UTF-8"?>
<!DOCTYPE svg PUBLIC "-//W3C//DTD SVG 1.1//EN" "http://www.w3.org/Graphics/SVG/1.1/DTD/svg11.dtd">
<!-- Creator: CorelDRAW X5 -->
<svg xmlns="http://www.w3.org/2000/svg" xml:space="preserve" width="982px" height="1000px" style="shape-rendering:geometricPrecision; text-rendering:geometricPrecision; image-rendering:optimizeQuality; fill-rule:evenodd; clip-rule:evenodd"
viewBox="0 0 955.01 972.226"
 xmlns:xlink="http://www.w3.org/1999/xlink">
 <g id="ly">
  <metadata id="CorelCorpID_0Corel-Layer"/>
  <path fill="rgba(255,255,255,.1)" d="M477.505 684.002l0 -4.30381 5.02035 3.58154 -5.02035 0.722278zm-262.412 133.355c0.081529,0.0711944 8.02315,4.30381 8.60189,4.30381 12.1134,0 7.96688,-1.86024 12.9057,-8.60763 -10.1716,-13.8863 -14.023,-9.51708 -21.5076,4.30381zm357.05 -430.186c16.2243,-4.33367 19.9275,-11.1017 21.5133,-30.1152l-21.5133 0 0 30.1152zm-318.333 425.882c25.6288,0 0.111385,-7.87042 43.0152,-4.29807l0 -12.9057 -51.6217 0c0.695868,8.34237 -0.198655,17.2038 8.60648,17.2038zm421.579 150.569c27.0963,0 26.3649,8.60304 38.7171,8.60304 11.29,0 11.1419,-7.02757 30.1152,-8.60304l0 -8.60648c-11.0971,-0.244587 -28.9818,-3.10499 -42.1723,-5.34532 -14.1252,-2.40338 -26.66,-11.3658 -26.66,13.9518zm-301.129 -193.584c6.85418,10.2325 5.20867,4.48065 8.60763,17.2038 -31.5736,0.706202 -15.9854,12.265 -18.7138,36.2115 -2.78921,24.5115 -21.5788,24.0178 31.6195,24.0178 0,-51.1038 20.5671,-33.8139 0,-64.5274 11.8895,-17.763 13.9415,-20.1055 8.60189,-43.0209 -25.1201,2.09334 -25.1006,8.60189 -30.1152,30.1152zm77.4342 -344.15c7.03217,2.54577 4.64371,1.5192 8.59729,4.30841 0.635008,0.442094 1.7167,1.38714 2.40338,1.89584 0.964569,0.715389 3.66766,3.17045 4.66897,3.93751l14.4456 11.3658c-30.4907,-2.53544 -29.8362,-20.9748 -30.1152,-21.5076zm25.8114 258.114c5.36599,23.021 5.31432,21.9795 25.8114,17.2038l0 25.8114c2.67209,1.79364 6.55448,3.46556 10.4564,6.88404 5.95506,5.21901 3.46556,10.9651 28.2102,23.2817 46.7747,23.2806 43.0657,29.9476 43.0657,77.3837 26.4418,13.9874 31.2578,38.3715 40.8862,62.3582 3.96392,9.88224 4.40601,18.2866 12.7335,25.9836 0.68094,0.625821 2.11861,0.88993 2.82022,1.4836 0.691274,0.590224 2.08301,0.986386 2.73295,1.56513 6.76806,6.05152 1.08284,-3.04299 5.35565,7.5512l25.669 -4.9549c-1.39748,-17.8434 0.752134,-7.09762 -8.4595,-20.8565 17.6861,-1.93603 14.8463,0.593669 8.60189,-12.9057 13.1239,3.05791 10.4001,5.13633 21.5133,0 -7.24116,-27.1021 -17.9157,-17.7687 -30.1152,-34.4144l12.9057 0c-3.39896,-12.7277 -1.75345,-6.9759 -8.60189,-17.2084 13.1537,-3.06365 16.5332,-6.69227 25.8114,-12.9057 -4.1465,-11.4474 -2.00263,-4.20276 -4.30381,-8.60189 -2.30233,-4.40601 -0.157317,2.84433 -4.30381,-8.60763 13.109,-0.289371 15.6846,-1.94062 25.8114,-4.29807 11.2694,7.54431 8.89126,2.17372 12.9057,17.2038 21.2331,-1.76263 15.3642,-6.69686 28.7889,-18.5301 19.8965,-17.5448 16.8834,3.9777 31.4358,-15.8832 -8.82581,-12.0468 -4.87222,-4.83777 -15.858,-9.94884l-8.17472 -4.73557c-10.732,-5.88846 -16.4321,-6.82318 -31.8882,-6.82318 -4.23836,10.492 -8.6639,6.69572 -12.9057,17.2038 -24.9938,0 -31.7871,-0.314633 -51.6228,4.30381 -4.20276,-15.7363 -4.53807,-9.01413 -12.9057,-21.5076 6.605,-9.50674 0.706202,-5.34532 12.9057,-8.60763 -1.65125,-19.8265 -3.47589,-11.7264 -12.9057,-25.8114 26.1214,0 34.4696,4.30381 55.9255,4.30381l20.7612 -18.0018c19.699,1.21949 20.8577,5.09614 43.7627,5.09614 -1.5502,-18.6265 -7.84975,-24.5712 12.9057,-30.1095 0,-27.4833 10.7618,-35.5719 21.5122,-51.6228 9.88339,6.61533 8.64323,8.22065 25.8114,8.60189 -0.97031,11.615 -2.01641,11.7011 -4.30267,21.5076 27.7463,0.62008 16.7157,2.55611 25.8114,21.5133 25.2625,-2.10368 15.5927,-6.48443 29.9464,-17.3772 19.0996,-14.4961 23.8708,-0.335303 25.9745,-25.6438 -30.5975,0.68094 -14.1711,2.41831 -43.0152,-4.30381 5.14666,-4.47606 -2.3586,0.488026 7.26068,-5.64502 14.0127,-8.93719 27.3857,-13.6728 39.7023,-24.8262 10.2681,-9.29775 -1.5192,-6.65553 17.5643,-8.24592 1.5502,-18.6265 2.41372,-24.221 21.5087,-25.8114l0 -25.8114 -8.60304 0c5.33498,-19.9838 6.7738,-3.80086 8.60304,-25.8114 -13.5924,0 -23.1852,-1.54446 -31.2337,-3.18078 -18.8194,-3.82612 -12.1536,-1.32628 -24.693,-9.72492 -15.9395,3.71474 -12.0273,7.09877 -30.1095,8.60763 -7.54086,-15.7213 -11.2246,-26.2742 -30.1152,-17.2095 0,-37.2588 -13.775,-24.0224 -43.0163,-17.2095 -1.53872,-18.4945 0.609745,-7.7487 -8.60648,-21.5076 13.3225,-1.13337 8.13453,0.050525 17.2095,-4.30381 -1.87517,-8.04267 -0.808401,-7.27561 -4.41061,-12.7989l-12.7231 -13.0883c-7.37206,-7.94736 -5.72541,-9.73985 -17.2796,-12.8299 5.47622,-11.4164 3.92143,-4.60352 4.29807,-21.5076l-47.319 -12.9057c-1.43307,-17.2095 -8.87633,-21.7005 -12.002,-39.6415 -0.486878,-2.80529 -3.28183,-21.8739 -3.29217,-21.991 -0.578741,-8.98312 2.05315,-9.33335 2.38846,-24.4036 -20.187,0 -22.1943,-5.36025 -37.0349,-2.9626 -19.4866,3.15092 -17.3875,7.71885 -31.7917,11.5645 0,16.3563 -2.18061,27.9909 17.2038,30.1152 -5.96999,12.9103 -1.40207,8.95212 0,25.8114 -13.3329,-4.82744 -11.6965,-12.9206 -30.1095,-17.2095 -26.2535,17.5804 -20.3857,41.0286 -12.9057,73.1304 -23.2208,11.1431 -18.932,-6.36156 -21.5133,17.2095l-8.60189 0 0 -8.60189c-27.2801,0 -41.4661,6.79332 -60.9366,16.493 -9.94769,4.95375 -8.04726,3.65847 -16.4976,9.31842l0 -21.5133 -21.4617 -4.25214 8.55596 -17.2554c11.9607,5.74148 8.33319,4.30381 25.8114,4.30381 0.538551,-24.1808 1.89584,-21.5133 25.8114,-21.5133 5.26379,-22.5893 12.9057,-36.5721 12.9057,-64.5285 34.5913,-18.3015 14.7556,-5.05021 34.4133,-34.4133 -11.2648,-16.8225 -7.06776,-15.8936 -25.8114,-25.8114 0,-43.0818 6.88518,-43.6559 29.0427,-65.5999 39.297,-38.91 8.52151,-25.1913 26.8839,-63.4571 18.1029,0 17.3772,-1.80857 30.1152,4.30381 -5.66569,21.2136 -25.5278,48.5132 -43.0209,60.2247 0,31.2991 -8.28266,50.6778 9.85238,72.2267 15.6788,18.6219 -0.915192,-1.91076 7.35713,18.1132 22.2896,0 28.2848,0.950789 43.8638,-7.75789 12.7426,-7.12403 22.5192,-10.5643 31.2222,-20.396 10.2841,-11.6093 3.72967,-0.909451 12.3878,-13.4236 26.8632,-38.8239 30.2921,-42.3239 13.8806,-68.3845 -9.96836,-15.8327 -7.02642,-20.6544 -13.0676,-29.9728 -1.448,-2.23114 -4.66438,-6.20424 -5.2592,-7.94621 -4.28315,-12.4992 -0.329561,-17.2348 3.00854,-24.1912l-18.1649 -16.2541c9.12092,-30.4907 2.08875,-26.0502 -11.9503,-52.5782 9.39995,-14.0379 12.5038,-9.92817 17.2095,-30.1141l-12.9057 0c8.36763,-12.4946 8.70294,-5.77249 12.9057,-21.5087 -13.3937,-3.11877 -21.178,-1.42159 -25.8114,-12.9057 -29.1851,0 -44.1646,11.9205 -68.7761,25.8631 -11.7884,6.68079 -49.1689,40.846 -55.093,48.1515 -9.89257,12.1949 -10.0958,28.4433 -29.1598,48.2744 -9.32876,9.70999 -12.3568,26.8081 -20.69,35.1 -8.73968,8.69834 -21.6752,23.3621 -28.4686,36.1966 -12.4946,0.280184 -73.7757,18.1236 -71.5549,67.1914 1.17356,25.8769 8.46983,21.929 -5.87928,27.4466l0 17.2095c17.0315,5.64502 3.32317,-3.81005 5.07662,12.637 1.71211,16.0761 3.11877,4.13616 7.82908,21.7763 14.5627,0 30.3839,1.06792 38.9663,-4.04889 12.7932,-7.62698 12.072,-10.9858 25.5622,-17.4587 0,24.546 4.30381,29.7547 4.30381,55.9266l8.60189 0 0 21.5076c-21.2538,5.67603 -2.84548,7.99788 -30.1152,8.60189 5.07088,-4.40486 -3.31283,-0.919785 7.17915,-5.72541 9.23804,-4.23262 2.25181,-1.06217 10.0304,-2.87648l0 -12.9057 -8.60189 0c1.29069,-15.5422 5.36025,-20.5017 8.60189,-34.4133l-21.5076 0c-10.1372,19.1547 2.09334,7.89569 -16.5745,17.8388 -25.2017,13.4293 -19.8058,63.3802 -9.2369,85.4068 -98.0323,0 -65.4127,51.6228 -133.361,51.6228 -8.77413,16.5894 -16.5986,22.3206 -31.786,28.8349 -4.86763,2.08301 -2.12894,8.19539 -10.8985,1.40207 -14.6787,-11.367 0.461615,-15.6042 -30.4459,-13.0332 3.05906,13.1239 5.14207,10.4013 0,21.5133 -30.5412,-8.15979 -10.639,-12.0169 -51.6228,-8.60763l0 21.5133c11.3509,5.44178 15.177,6.5384 23.4034,15.3389 6.78299,7.25608 1.25049,0.584483 6.14798,7.03217 0.538551,0.706202 1.33662,1.8189 1.81431,2.5251l4.37386 11.5794c2.28741,17.8043 -3.98344,2.6273 7.28135,19.4452 -3.65847,15.7007 -0.62008,15.68 -6.73705,31.6849 -6.16291,16.1324 -7.6821,23.7433 -14.7705,37.1474 -9.73526,-2.26674 -18.042,-5.8988 -28.0471,-10.67l-27.9656 -10.7572c-38.4679,-16.5022 -52.5575,-38.2291 -90.2526,-12.9861 1.7879,21.4869 1.53412,36.1863 -8.50084,56.0219 -6.29496,12.4487 -26.5635,30.3954 -30.2163,42.9199 -5.5589,19.0629 16.3403,37.2484 -8.60304,47.319l0 8.60189c11.2602,0.253773 41.1515,6.73705 47.3201,12.9057 5.78626,12.0571 5.76674,20.9185 12.9057,34.4179 20.0137,0 29.5353,-7.26527 46.5462,-3.69866 19.536,4.10057 19.5566,7.99788 43.7926,7.99788 3.01887,-11.3865 -0.339896,-3.53675 4.30381,-12.9057l25.8114 0c2.05315,-18.7586 4.93882,-12.7381 21.5076,-21.5076 -7.19982,-30.9029 -0.685533,-30.0498 19.1811,-45.3428 16.005,-12.3212 16.5894,-7.14355 35.1241,-12.1995 9.54808,-2.60663 20.7968,-11.1477 27.4271,-15.5881 0,-22.6008 -2.98672,-37.3908 22.2345,-26.9344 11.2751,4.67931 27.2697,13.597 46.5979,14.0287 6.43735,-17.7837 0.320375,-5.44178 26.5681,-16.6308 11.3256,-4.82629 4.73557,-11.5794 33.6566,3.72507 -2.28626,9.80645 -3.3335,9.89257 -4.30381,21.5076 22.7432,15.2276 31.7768,46.6426 56.4858,59.6655 8.07367,4.25329 42.8625,35.8062 47.629,42.7155 5.06513,7.35828 6.38108,6.09286 7.73837,22.3723 -14.0747,5.09614 -3.12566,-5.57957 -12.9057,12.9057 -13.1549,0 -23.6009,3.34843 -28.743,2.42291 -14.9382,-2.68701 -4.26822,-6.72213 -31.4874,-6.72213 -3.01772,11.3865 0.345637,3.53675 -4.29807,12.9057 9.51134,14.2067 3.98803,7.32728 19.4958,14.9187 12.2454,5.99525 15.9739,7.35139 19.2213,19.4958 37.3702,0 28.0919,1.63058 25.8114,-25.8114 14.1447,-6.78873 14.155,0.126313 24.1085,-10.3048 18.7953,-19.7036 -10.4254,-16.5998 18.9067,-19.8104 -0.452429,-20.3398 4.3796,-16.8949 -12.9057,-21.5076 3.25657,-5.79775 2.35286,-4.75624 4.30381,-12.9057 25.7253,2.13928 4.78151,7.94621 34.4133,8.60189 -0.55922,-25.2269 -12.8552,-24.0074 -28.8188,-35.704 -13.3742,-9.80186 2.896,-5.53364 -18.5002,-7.3112 3.25657,-5.79775 2.34712,-4.75624 4.30381,-12.9057 -61.0687,-14.2274 -27.0114,-52.213 -73.1361,-64.5285 7.09877,-13.4144 8.60763,-13.4902 8.60763,-34.4133l8.60189 0z"/>
 </g>
</svg>
