<?xml version="1.0" encoding="UTF-8"?>
<!DOCTYPE svg PUBLIC "-//W3C//DTD SVG 1.1//EN" "http://www.w3.org/Graphics/SVG/1.1/DTD/svg11.dtd">
<!-- Creator: CorelDRAW X5 -->
<svg xmlns="http://www.w3.org/2000/svg" xml:space="preserve" width="860px" height="917px" style="shape-rendering:geometricPrecision; text-rendering:geometricPrecision; image-rendering:optimizeQuality; fill-rule:evenodd; clip-rule:evenodd"
viewBox="0 0 860.122 916.941"
 xmlns:xlink="http://www.w3.org/1999/xlink">
 <g id="ly">
  <metadata id="CorelCorpID_0Corel-Layer"/>
  <path fill="rgba(255,255,255,.1)" d="M244.482 498.839l1.05842 1.05487c-0.0720575,-0.0673324 -1.41162,-0.704037 -1.05842,-1.05487zm184.25 -31.8896c-10.4743,2.7748 -4.31045,-3.39024 -7.0888,7.08644l7.0888 -7.08644 10.6302 0c-2.84922,-10.6751 0.0413445,-7.77866 -10.6302,-10.6302l0 10.6302zm49.6051 77.9485c0,4.07774 7.65817,8.13541 5.48582,0 -2.1381,-8.01374 8.90914,-0.103952 -1.63606,-1.05369 -4.46638,-0.401632 -3.84976,-6.14379 -3.84976,1.05369zm-219.681 -70.862c0,4.07538 7.65817,8.13541 5.48582,0 -2.13337,-8.01492 8.90914,-0.109858 -1.63606,-1.05487 -4.46638,-0.402813 -3.84976,-6.14497 -3.84976,1.05487zm170.076 -258.657c0,4.07184 7.65581,8.13186 5.487,0 -2.1381,-8.01846 8.90914,-0.108677 -1.63724,-1.05842 -4.4652,-0.401632 -3.84976,-6.13906 -3.84976,1.05842zm24.7996 347.239c0,4.07538 7.65935,8.13186 5.49172,0 -2.13928,-8.01846 8.90559,-0.108677 -1.64078,-1.05842 -4.4652,-0.402813 -3.85094,-6.14024 -3.85094,1.05842zm-70.8632 -109.843c-10.4696,2.77835 -4.30573,-3.38552 -7.08408,7.08526 9.20682,-2.4405 3.95017,1.31357 7.08408,-7.08526l10.6302 0c5.64529,-8.42836 4.28919,-3.69147 7.08408,-14.1741l7.08998 0c1.60298,14.6501 -4.31045,6.56904 5.50708,12.2061 5.92643,3.40324 8.38229,1.80498 15.7522,1.968 2.79607,-10.4838 1.43997,-5.74215 7.08526,-14.1741 -4.43213,-19.0303 -7.08526,-16.6358 -7.08526,-42.5198 -6.46509,-3.20124 -4.43094,-2.73346 -14.1741,-3.54027 9.80572,-21.205 -8.84653,-11.8694 -21.2593,-17.7191 4.69909,-17.5974 7.08408,-3.95017 7.08408,-31.8896l-21.2581 0c0,20.0792 3.08784,13.6094 -7.08526,17.7191 1.52266,18.3215 6.62338,11.1406 7.08526,31.8896 -3.80133,4.5538 0.769007,-2.41806 -4.95188,6.20167 -15.1451,22.8257 1.06669,3.15163 -17.2879,21.2298 -15.2159,14.988 -1.20962,15.581 -13.9614,28.308 -9.33558,9.32376 -23.4092,18.2967 -35.7559,24.9342 -18.8354,10.1318 2.96735,1.6904 -23.7069,7.90506 0,23.9054 -1.88767,17.0965 6.8242,32.1494 11.619,20.0662 2.43342,8.29842 21.5204,17.4592l10.6291 -5.94651c5.18105,7.35222 -3.00397,3.82023 13.0282,9.48678 10.6385,-3.37725 2.77835,-2.65313 15.3163,0 0,-15.4297 -3.11383,-15.425 11.2918,-34.7719l3.13037 -3.95607c1.49431,-1.37618 5.03457,-2.83269 6.83837,-3.7907 -1.48604,17.8573 -7.08644,17.1284 -7.08644,38.9784 10.5558,4.05884 7.7763,-4.00096 3.54027,14.1693l14.1752 0c0,-8.83708 0.121671,-8.7792 3.54499,-14.1693 3.71155,15.9401 2.38144,14.1693 21.2593,14.1693 0,-30.7638 -4.55734,-5.81657 -10.6302,-31.8896 10.9693,-0.932022 6.69662,0.0472508 14.1705,-3.54027 7.77984,19.2724 13.5303,-7.63219 14.1752,21.2605 24.0211,0 23.8876,-4.34471 42.5186,0l0 -10.6291c-18.7326,0 -5.28146,-0.0259879 -10.6302,-3.54499 9.56711,-0.794995 9.63798,-1.66205 17.7155,-3.54617l4.08011 21.1436c23.2687,-1.85814 37.1167,-1.21316 49.0688,21.3763 -9.67933,3.50837 -7.28607,-0.184278 -10.6302,14.1752 10.7968,-0.243342 12.9196,-1.59944 21.2593,-3.54499 30.2582,20.2588 16.7693,12.7305 38.9748,-3.54027 22.6449,5.27201 8.10233,6.34342 21.9291,17.0445 5.98077,4.62467 22.2268,7.00611 31.2198,7.75504 3.05949,-13.1275 5.84729,-9.90495 7.08998,-24.7996 -9.21154,2.43932 -3.95489,-1.31948 -7.08998,7.08526 -3.82968,0 -21.251,3.08311 -25.754,-11.8777 -1.51084,-5.00504 -1.03007,-0.0295318 0.954466,-9.38283 41.9871,9.78092 20.2292,-3.73281 46.0589,-10.6291 -1.27105,-15.288 -6.59149,-13.7937 -26.3778,-26.7711l-9.05207 -5.11844c4.73807,20.3509 5.58741,13.7394 21.2605,21.2593 -14.6312,21.8464 -23.2651,3.2355 -46.0636,14.1741 -1.30294,-11.9013 5.90517,-8.26416 -18.1668,-17.2666l-39.6989 -13.7228c-11.5174,-3.8663 -1.38917,-1.41398 -11.9438,-2.6614 -19.5441,-2.30938 2.02115,-6.84192 -22.3154,-8.86779 1.8794,8.07634 2.74645,8.1484 3.54145,17.7155l-7.08526 0 0 -14.1752c-10.3373,-2.40625 -24.1853,-6.14733 -35.4286,-7.08526 4.09192,17.5773 9.64153,12.3419 -7.09116,14.1741l3.54499 7.08644 -14.1741 0c6.76277,-10.094 4.1687,-7.01084 5.82957,-12.6053l0.924934 -3.50719c2.39325,-6.78758 7.99365,6.46509 0.334299,-26.4061 -18.0734,4.82431 -13.2361,12.6632 -17.7179,31.8884l10.6291 10.6302c-4.74989,3.5946 7.45381,3.54499 -10.6291,3.54499l0 -10.6314 -21.2605 0c-2.89175,-5.15034 -1.7152,-3.75289 -3.54027,-10.6291 12.3502,-3.29811 12.9692,-3.26857 14.1705,-17.7191 -20.0674,5.3606 -0.966279,8.27834 -22.5575,5.08064 -17.8147,-2.63659 -16.4043,-1.57345 -27.0464,5.54961 -4.06002,-15.1959 -8.99773,-8.71423 -10.6302,-28.3458 12.7766,-3.41033 9.47969,-0.321305 10.6302,-14.1741 -12.9621,-3.46112 -7.42428,-3.73636 -17.7155,-10.6291 8.54649,-12.7601 5.46574,-4.39078 22.0708,-30.4212 5.02749,-7.87671 4.73335,-6.31507 13.359,-8.55358 0.368556,16.5094 4.1687,18.6936 10.6291,28.3434 -11.7465,4.2573 -2.90711,-3.41387 -10.4826,10.7779 -0.380369,0.709943 -0.761919,1.68567 -1.13402,2.40625l-6.09772 11.6213zm265.741 134.642c-2.77598,-10.4708 3.39024,-4.30691 -7.08526,-7.08526 2.44405,9.20682 -1.31357,3.95017 7.08526,7.08526 3.9419,10.5582 -7.59675,5.53307 10.6291,7.0888 -5.44093,-7.833 -0.57646,-4.40614 -10.6291,-7.0888zm-411.013 -49.6039l-10.6291 0 0 7.08408c18.4467,-1.56873 6.40248,3.3867 10.6291,-7.08408 5.32398,3.56507 6.37413,4.51481 11.9993,9.26116 0.559922,0.473689 1.36319,1.14583 1.9172,1.62425 28.2182,24.2893 16.9264,8.44017 44.2126,16.0227 15.3624,4.27383 16.9453,4.08483 34.6561,6.33633 4.85029,0.616623 23.0548,2.18889 38.3121,2.18889 2.95554,8.16139 -4.05412,8.81818 17.7202,10.6302 1.58999,-14.5438 0.246885,-10.1069 17.7143,-14.1741l0 -7.08526c-3.12092,0.66033 -57.718,2.548 -67.3182,-3.54499 10.5546,-3.93835 5.53307,7.59911 7.08526,-10.6302l-7.08526 0 0 10.6302c-11.5918,-4.19705 -2.57517,4.59514 -10.6302,-10.6302l-29.2612 -0.610717c-19.8075,0.82807 -12.1954,-4.91408 -30.9776,-6.47454 0.314218,-14.0607 -3.41033,-13.9484 6.91397,-16.3665 7.45381,-1.74592 3.04295,10.5369 14.3465,-4.89164 -9.15248,-4.39432 -8.49215,-0.829252 -20.4773,-8.13541l-14.9525 -6.03983c12.8439,-26.7711 -7.0888,-12.6892 -7.0888,-53.1489 -11.6178,-7.77984 -28.5005,-22.3638 -31.886,-35.4346 1.14229,-13.7642 3.19415,-9.23163 3.54027,-24.7996 16.3299,7.83418 9.71358,-1.18363 21.3054,14.1244 12.2285,16.1491 13.6638,4.00805 14.1292,24.8504 9.40763,-2.51138 34.6266,-21.0006 38.259,-25.5627 3.36071,-4.22186 2.89175,-6.70843 3.43513,-11.404 4.42858,-38.3133 -20.3261,-27.813 -27.5248,-58.702 6.80175,-10.153 8.99891,-12.8558 24.8055,-14.1741 -3.76707,14.1067 -2.32238,1.30176 -5.72089,12.5628 -4.89282,16.1881 6.63637,22.867 23.4352,5.15506 -0.933203,-8.54058 -0.783182,-5.30154 -4.6542,-13.0601 -0.300043,-0.607173 -1.0088,-1.79199 -1.26278,-2.28103 -0.255154,-0.497315 -0.867052,-1.54392 -1.16828,-2.37672 10.2581,-0.854058 13.5137,-2.6614 22.5705,-5.77169 16.839,-5.7835 26.2844,-2.03415 44.033,-19.7437 9.03199,-9.01073 7.69716,-12.9739 20.3982,-29.2199l4.6164 -6.18985c3.77416,-7.08408 3.45167,-14.5721 2.82796,-22 -0.841064,-10.0065 -7.18921,-22.8493 -12.3915,-31.019 -2.73228,-4.28919 -4.32699,-5.11017 -7.64518,-10.0691 10.3822,-6.95059 23.59,-14.773 28.3434,-21.2593 -14.1776,-3.30165 -17.2962,-7.00139 -31.8884,0 -2.4405,-9.208 1.31357,-3.95017 -7.08644,-7.08526 5.91108,-8.82527 9.67224,-14.6218 21.2605,-17.7143l0 14.1693c20.8199,-1.73174 4.2821,-7.08526 31.8896,-7.08526 -3.51073,15.0624 -6.20285,17.2631 14.1705,17.7155 -0.0803264,0.0756013 -4.49119,4.58687 -4.76288,5.31926l-2.32238 26.5703c20.586,-1.71166 9.39464,-5.23893 31.8884,0 -6.33161,-29.9015 14.6477,-10.1117 -14.1741,-53.1489 21.0975,-5.63348 15.5644,-11.124 20.084,-18.8944 4.97551,-8.56303 8.26535,-0.298861 8.26535,-30.7095l17.7143 0c1.74946,-21.0124 10.1022,-15.4061 10.6291,-38.9748 -18.6097,0.413445 -13.5291,3.63241 -28.3434,7.08526 -5.7457,-11.9734 2.38498,-14.0996 -28.3493,-21.2593 -1.21789,-14.6726 -2.93782,-11.5469 -8.86779,-23.017 -4.22658,-8.17911 -5.46574,-19.485 -33.6804,-19.6079 -3.93009,-0.0165378 -15.9531,2.85513 -17.6942,3.81314 -13.359,7.35222 -2.15464,4.99677 -6.59976,18.5471 -0.246885,0.7631 -2.8823,5.30745 -3.50719,6.32806 -3.81196,6.25246 -2.88821,15.0411 -25.3772,10.9102 -9.64153,-1.77072 -9.40763,-2.1381 -17.6553,-4.06002 -9.51395,6.37059 -24.0058,16.8614 -44.5162,9.0946 -17.9577,-6.80057 4.95897,-9.0946 -47.6087,-9.0946 -4.00805,-7.57785 -0.301224,-17.7191 -38.9736,-17.7191 -1.94555,8.34449 -3.30165,10.4672 -3.54499,21.2593l-24.7996 0c-4.92944,-12.2061 -9.24934,-1.96209 -14.1741,-14.1693 -29.1537,0 -21.0514,4.80423 -39.0292,14.115 -15.3931,7.96885 -24.2101,4.26557 -24.75,28.4036 -15.2337,-1.2675 -6.3824,0.503221 -17.7143,-7.0888 -4.96842,9.3911 -6.76395,10.303 -7.08526,24.8043l-21.2605 0c1.23915,14.8946 4.02695,11.6757 7.08526,24.8043l-34.8569 22.5398c-0.882409,0.12994 -3.74935,-0.447701 -4.70736,-0.347293 -10.5086,1.12575 -13.0625,4.79596 -13.5846,12.3868l0 14.18 0 0.844608c12.6171,5.09364 -0.737112,-6.5277 17.7143,28.3446l28.3493 0c-4.72862,9.85179 -3.54499,6.86318 -3.54499,21.2605l-10.6291 0c18.4018,38.3499 13.8646,20.9038 33.2917,30.4862l4.16752 2.92246c10.3621,7.34396 1.69985,3.2166 17.4178,10.9256 7.83418,3.84622 18.7527,8.21573 26.9802,8.71777 11.9226,0.727662 11.9651,-2.12983 17.8395,-2.40979 7.67589,-0.369738 7.72196,2.21843 20.7715,2.50665 5.41022,-20.2564 22.958,-18.9877 30.2523,-12.5971 3.58634,3.14336 5.05584,5.39486 5.18105,5.51181 -24.3141,6.4899 -14.2709,17.0564 -25.6123,31.0769 -5.95833,7.36522 -9.18083,11.1984 -13.3625,29.1573 12.6597,18.9062 21.0845,12.8558 14.1705,42.5186 18.7361,0 5.285,0.0248067 10.6302,3.54499 13.1357,-3.50719 4.58215,-3.57807 17.7179,-7.08998 0.340206,15.2715 0.783182,8.91859 3.47412,17.8277 2.8504,9.43835 0.895403,3.67493 2.3649,15.3471 2.76181,21.9504 -2.29757,21.1329 -2.29757,41.2346 15.4805,-3.70446 9.32849,-2.68385 11.8895,4.84557 0.116946,0.339024 0.347293,1.43524 0.497315,1.82979l3.0146 5.99613c4.38606,8.55003 10.5995,17.5265 12.9432,26.3069 -20.3521,-13.6307 -18.1006,-12.1411 -24.7996,-24.8043 -15.5727,-0.347293 -11.0354,-2.39798 -24.8043,-3.54499 0.138209,6.08118 -1.07968,7.30615 1.53919,12.6384l9.08987 8.62091 -7.08526 0 0 10.6302c26.4498,2.89529 -4.91172,7.18567 21.2605,14.1741 -2.89175,5.14797 -1.71993,3.74935 -3.54499,10.6302 0.561103,0.618985 1.48604,0.71585 1.68685,1.84987l5.40313 8.78038c14.3323,0 1.9739,0.673324 4.63648,-3.54617l11.9816 -3.54027c-1.83215,14.33 -2.82442,8.96466 -5.98904,17.7155 17.4344,-3.69501 10.5499,-2.88821 24.7996,10.6302zm474.791 60.233c-2.84922,-10.6716 0.0460695,-7.77866 -10.6291,-10.6291 2.76063,10.3326 0.0330756,8.09406 10.6291,10.6291zm-70.8632 -21.2593l10.6291 0 0 -7.08408 -10.6291 0 0 7.08408zm-21.2605 60.2389c10.3621,-2.48185 5.10663,0.452426 10.6302,-7.08998 -4.77469,-2.68148 -3.91709,-1.93256 -10.6302,-3.54027l0 10.6302zm-343.693 -166.537c10.3621,-2.47712 5.10663,0.457151 10.6302,-7.08526 -4.77587,-2.68148 -3.91355,-1.9361 -10.6302,-3.54381l0 10.6291zm-63.7744 32.9905l-5.99258 2.44405 2.44877 -3.54499 3.54381 1.10094zm379.124 16.6193c13.848,-1.15528 10.7637,2.14282 14.1741,-10.6314l-14.1741 0 0 10.6314zm-127.557 49.6039c14.2367,-3.80133 10.257,-0.962735 10.6291,-17.7155l-7.08526 0c-0.794995,9.54584 -1.61598,9.66751 -3.54381,17.7155zm24.8031 -14.1752l10.6291 0 0 -17.7143c-9.19855,6.15914 -9.45725,3.60287 -10.6291,17.7143zm201.962 7.08998l-5.12671 -9.0438c-4.25139,-4.92708 -2.63659,-2.50193 -8.33622,-5.84256 -9.65452,-5.65356 -10.4838,-7.79638 -18.4266,-9.91794 1.51439,18.1998 16.3759,28.2737 31.8896,31.8896l0 -7.08526c21.6621,14.5001 -1.86286,7.24827 14.3418,17.2796l7.27426 3.54499c9.34857,4.19233 -3.89347,2.50193 13.8185,3.97497l-6.34106 -11.3744c-2.79488,-5.69254 -2.93664,-7.6251 -4.28919,-13.4251 -3.01342,1.12221 0.138209,-4.26438 -10.6302,7.08526 -3.27212,-12.2498 -1.91956,-10.9031 -14.1741,-14.1752l0 7.08998zm-315.344 -258.659c0,8.11414 1.20017,4.12145 3.54027,14.1741 17.5383,-4.68255 16.6724,-28.0067 16.5508,-28.8726 -1.93374,-13.8811 -20.091,2.54446 -20.091,14.6985zm14.1693 276.373l0 7.08526c16.3003,3.80015 39.9045,-8.01019 49.6086,-21.2593 -2.68266,-4.77469 -1.93846,-3.91709 -3.54499,-10.6302 -17.2206,1.43642 -20.1158,6.99784 -28.5371,17.4438 -11.6757,14.4788 -3.57334,10.316 -17.5265,7.36049zm187.791 265.744c0.356744,15.9826 4.01868,18.7208 7.0888,31.8896l24.8008 0c1.38445,-16.6429 8.39883,-25.0181 0,-42.5186 -9.38283,3.78715 -6.60802,-7.28962 -7.08526,14.1693 -15.5727,-0.347293 -11.0354,-2.39798 -24.8043,-3.54027 -0.0460695,-0.57646 -1.11276,-8.98356 -1.11276,-9.00128 0.255154,-12.3325 6.07291,-4.59868 18.833,-1.62779 4.89164,-3.27684 7.58139,-6.78049 12.2651,-8.99419 3.29811,-1.56046 16.0239,-4.34353 19.6233,-5.17987 0,-14.2 -0.806807,-9.20327 4.01396,-20.7868 0.321305,-0.770188 0.836339,-1.61598 1.1541,-2.38971l1.82034 -5.26492c3.87575,-9.81872 35.4759,-47.1728 15.5349,-86.2103 -8.33622,-16.3299 0.807989,8.16021 -15.9566,-19.4721 -8.31142,-13.7027 -1.71166,1.22143 -17.1757,-21.8003 -9.65806,-14.3784 -13.6472,-3.46466 -20.6486,-18.3298l-3.71628 -10.4578c-4.82903,-11.8387 -4.00569,-5.92643 -4.00569,-20.7951 -6.46037,-3.20597 -4.43094,-2.73228 -14.1693,-3.54499 -0.493771,-22.0248 -4.93771,-26.9471 -17.7191,-28.3446 -18.8743,39.3339 9.26116,55.4583 -23.929,47.3193 -10.1743,-2.49484 -10.5216,-5.64175 -22.1299,-8.34449l0 -7.08526 10.6291 0 0 -7.0888c-13.1357,-4.35771 -4.9507,4.36834 0,-14.1717 -21.0124,-1.74828 -20.4726,-0.0460695 -30.739,-4.69909 -10.433,-4.72981 -4.80777,-4.13445 -13.3035,-3.69974 -6.17686,0.314218 -12.1446,1.31003 -19.7367,1.31003 2.22669,26.7593 1.26042,7.7385 -3.54499,28.3493 -14.115,-3.77061 -14.4375,-18.1254 -39.8442,6.21348 -6.85845,6.57141 -11.7631,7.73496 -15.9531,12.3927 -14.8852,16.5602 7.41956,13.2964 -32.7684,27.4657 -12.564,4.4274 -58.3335,13.1156 -42.5316,46.0506l-7.08526 0 20.3226 52.3551c1.63606,5.11726 6.38949,5.55669 1.63606,16.9819 -4.72862,11.3744 -1.90775,-9.21154 -4.24312,12.1576 11.2563,5.95478 19.7237,14.9017 34.7931,6.53715 20.8494,-11.5753 13.4594,-8.41655 36.0701,-6.53715 10.0361,-6.71788 8.88551,-10.1778 21.9586,-13.4759 17.2749,-4.36125 21.4649,-7.40774 31.2162,-8.035 34.4836,-2.21843 37.8349,15.0529 46.0341,32.14l10.6302 -7.08526 -3.97615 14.037c11.228,-0.105133 13.3495,-1.46477 21.694,-3.40678 4.51245,9.40409 3.23195,3.79188 3.54145,17.7155 12.023,2.79843 18.2329,7.44791 31.8896,10.6291 5.49881,13.3046 -7.52115,9.32849 10.6291,14.1741zm-187.791 -347.238l-6.37768 7.79284 -0.707581 -11.3378 7.08526 3.54499zm0 0c0.712306,-0.467783 1.69394,-2.1759 2.10148,-1.43524l-2.10148 1.43524zm432.276 322.435c0,7.94286 -2.80433,7.77984 -7.0888,14.1741 4.92117,6.7167 0.769007,0.237435 5.09245,5.54134 4.50773,5.52834 2.75827,0.945016 5.53661,8.628l-21.1376 -4.07893c-5.09718,9.94393 -9.43362,19.1626 -17.699,25.4776 -7.23528,5.52362 -20.2706,15.3872 -28.4828,17.5808l0 17.7155c11.2162,4.18406 5.08182,-7.69243 7.08644,10.6291 12.2687,-2.85749 21.1873,-6.21821 28.1886,-14.3288 6.19812,-7.19039 4.2821,-9.88487 7.05218,-14.213 6.87499,-10.7507 0.702856,-5.75397 14.3631,-6.89271 2.90356,-34.8557 23.4104,-6.12607 31.8884,-42.5186 5.64175,-2.79961 -6.5147,-3.62886 10.6302,0 0.694587,-31.0733 11.9391,-21.9173 -17.7155,-21.2593 -6.23474,-23.349 -11.9048,2.45704 -14.1741,-24.8008 -18.1254,-1.50966 -4.79596,-2.68975 -21.2593,-7.0888 2.37317,8.88079 3.59933,8.83117 8.224,16.5803 3.69974,6.19458 9.49505,13.196 9.49505,18.8543zm-269.285 -811.405c0,16.1208 2.92482,23.2356 3.30637,32.1707l-5.19877 62.3132c-0.0909578,0.878865 2.80433,4.1628 -4.70736,12.0265l-3.92064 3.36071c-4.58687,3.27684 2.66495,-0.0578822 -7.19866,3.51192 1.21671,14.597 3.85921,7.96412 2.80433,20.4773 -0.519759,6.1804 -2.80433,8.83472 -2.80433,22.0413 -0.50204,0.238617 -1.46123,-0.230348 -1.62425,0.378006l-12.2876 7.49398c-9.76674,4.5786 -9.28951,-5.15034 -14.4328,16.9323 -44.8753,0 -31.6096,15.5054 -53.1501,21.2593 0.348475,15.5727 2.39798,11.0366 3.54499,24.8008 35.9331,-0.79972 -9.92621,-2.95554 46.19,-21.1294 10.3208,-3.34418 9.77973,-8.5961 49.4787,-17.8454 -3.89701,-18.3888 0.877684,-24.4145 10.6302,-38.9748 -4.36597,-9.08987 -6.27018,-19.2547 -10.6302,-28.3446 10.4838,2.79607 5.74215,1.43997 14.1705,7.08644 6.91752,-5.06883 0.317762,-0.979273 5.52007,-5.1149 5.33107,-4.23958 2.29757,-2.08849 8.90087,-5.26846 13.2917,-6.41193 8.87961,3.6454 10.3834,-14.4221 20.2044,-1.6774 4.59868,-5.40313 24.8031,-7.08408l0 -10.6302c-14.7186,1.22616 -46.1097,29.566 -54.0313,2.14164 -1.43997,-4.97078 -1.64433,0.779638 0.88359,-5.68545 6.90452,-2.44523 -5.99731,-2.47476 10.6291,3.54381 -0.602448,-26.9141 -7.0888,-6.63756 -7.0888,-28.3446 8.65398,-3.57807 2.86104,-2.39798 14.1741,0 -1.63252,-19.615 -9.788,-24.2432 -10.5842,-46.118 -0.388638,-10.7188 2.60234,-19.7697 -7.11361,-20.2848 -20.3108,-1.07141 8.3185,3.4186 -10.6468,9.70886zm-49.6086 506.686l3.54499 0 -2.95081 4.13445 -0.594179 -4.13445zm-124.012 -124.013l3.54381 0 -2.95081 4.12972 -0.592998 -4.12972zm134.642 400.387l1.9491 -7.62037 -1.9491 7.62037zm-191.333 -85.0384l3.54499 0 -2.95436 4.13563 -0.590635 -4.13563zm-113.382 -205.51l-3.54499 0 2.95436 -4.12972 0.590635 4.12972zm-10.6302 -7.08526l0 -3.54381 4.13445 2.95436 -4.13445 0.589454zm42.5198 -7.08408c3.63241,-3.63713 12.8132,5.08419 4.11318,1.91248 -0.0838702,-0.0295318 -10.0609,4.03404 -4.11318,-1.91248zm-7.09116 -3.54499l1.0596 1.05487c-0.0708762,-0.0673324 -1.41044,-0.704037 -1.0596,-1.05487zm-35.4286 0l3.54499 0 -2.95554 4.13445 -0.589454 -4.13445zm0 0l-3.54499 0 2.95436 -4.13563 0.590635 4.13563zm-10.6302 -10.6291l3.54381 0 -2.95318 4.13326 -0.590635 -4.13326zm0 0l-3.54499 -3.54617 3.54499 3.54617zm198.421 -322.435l0 -3.54499 4.13445 2.94963 -4.13445 0.59536z"/>
 </g>
</svg>
